datalab-vis01_v3
…
## Parsed with column specification:
## cols(
##   age = col_integer(),
##   sound = col_character(),
##   kids_produce = col_integer(),
##   kids_understand = col_integer(),
##   kids_respond = col_integer(),
##   prop_produce = col_double(),
##   prop_understand = col_double()
## )

anim

## # A tibble: 33 x 7
##      age sound      kids_produce kids_understand kids_respond prop_produce
##    <int> <chr>             <int>           <int>        <int>        <dbl>
##  1     8 cockadood~            1               3           35       0.0286
##  2     8 meow                  0              10           35       0.    
##  3     8 woof woof             3              12           35       0.0857
##  4     9 cockadood~            0               2           91       0.    
##  5     9 meow                  2              21           93       0.0215
##  6     9 woof woof             2              22           93       0.0215
##  7    10 cockadood~            0               9          139       0.    
##  8    10 meow                  5              41          145       0.0345
##  9    10 woof woof             4              40          143       0.0280
## 10    11 cockadood~            0               4           94       0.    
## # ... with 23 more rows, and 1 more variable: prop_understand <dbl>
…
